…
``` r
library(p8105.datasets)

data("brfss_smart2010") 

filtered_brfss = brfss_smart2010 %>%
  janitor::clean_names() %>%
  filter(topic == "Overall Health") 

filtered_brfss
```

    ## # A tibble: 10,625 x 23
    ##     year locationabbr locationdesc class topic question response
    ##    <int> <chr>        <chr>        <chr> <chr> <chr>    <chr>   
    ##  1  2010 AL           AL - Jeffer~ Heal~ Over~ How is ~ Excelle~
    ##  2  2010 AL           AL - Jeffer~ Heal~ Over~ How is ~ Very go~
    ##  3  2010 AL           AL - Jeffer~ Heal~ Over~ How is ~ Good    
    ##  4  2010 AL           AL - Jeffer~ Heal~ Over~ How is ~ Fair    
    ##  5  2010 AL           AL - Jeffer~ Heal~ Over~ How is ~ Poor    
    ##  6  2010 AL           AL - Mobile~ Heal~ Over~ How is ~ Excelle~
    ##  7  2010 AL           AL - Mobile~ Heal~ Over~ How is ~ Very go~
    ##  8  2010 AL           AL - Mobile~ Heal~ Over~ How is ~ Good    
    ##  9  2010 AL           AL - Mobile~ Heal~ Over~ How is ~ Fair    
    ## 10  2010 AL           AL - Mobile~ Heal~ Over~ How is ~ Poor    
    ## # ... with 10,615 more rows, and 16 more variables: sample_size <int>,
    ## #   data_value <dbl>, confidence_limit_low <dbl>,
    ## #   confidence_limit_high <dbl>, display_order <int>,
    ## #   data_value_unit <chr>, data_value_type <chr>,
    ## #   data_value_footnote_symbol <chr>, data_value_footnote <chr>,
    ## #   data_source <chr>, class_id <chr>, topic_id <chr>, location_id <chr>,
    ## #   question_id <chr>, respid <chr>, geo_location <chr>

Problem 2
---------

``` r
data("instacart")

cart_data = instacart

cart_data
```

    ## # A tibble: 1,384,617 x 15
    ##    order_id product_id add_to_cart_ord~ reordered user_id eval_set
    ##       <int>      <int>            <int>     <int>   <int> <chr>   
    ##  1        1      49302                1         1  112108 train   
    ##  2        1      11109                2         1  112108 train   
    ##  3        1      10246                3         0  112108 train   
    ##  4        1      49683                4         0  112108 train   
    ##  5        1      43633                5         1  112108 train   
    ##  6        1      13176                6         0  112108 train   
    ##  7        1      47209                7         0  112108 train   
    ##  8        1      22035                8         1  112108 train   
    ##  9       36      39612                1         0   79431 train   
    ## 10       36      19660                2         1   79431 train   
    ## # ... with 1,384,607 more rows, and 9 more variables: order_number <int>,
    ## #   order_dow <int>, order_hour_of_day <int>,
    ## #   days_since_prior_order <int>, product_name <chr>, aisle_id <int>,
    ## #   department_id <int>, aisle <chr>, department <chr>

``` r
dim(cart_data)
```

    ## [1] 1384617      15

There are

``` r
distinct(instacart, aisle_id) 
```

    ## # A tibble: 134 x 1
    ##    aisle_id
    ##       <int>
    ##  1      120
    ##  2      108
    ##  3       83
    ##  4       95
    ##  5       24
    ##  6       21
    ##  7        2
    ##  8      115
    ##  9       53
    ## 10      123
    ## # ... with 124 more rows

``` r
# There are 134 different aisles. 

instacart %>%
  group_by(aisle_id) %>% # group by aisle id
  summarize(n = n()) %>% # take count of number of times ordered 
  arrange(-n) # puts the aisle id in order from most ordered to least
```

    ## # A tibble: 134 x 2
    ##    aisle_id      n
    ##       <int>  <int>
    ##  1       83 150609
    ##  2       24 150473
    ##  3      123  78493
    ##  4      120  55240
    ##  5       21  41699
    ##  6      115  36617
    ##  7       84  32644
    ##  8      107  31269
    ##  9       91  26240
    ## 10      112  23635
    ## # ... with 124 more rows

``` r
# Most items are ordered from aisle 83 and aisle 24. 


aisle_data = instacart %>%
  group_by(aisle_id) %>% # group by aisle id
  summarize(n = n())  # take count of number of times ordered 
  
aisle_data
```

    ## # A tibble: 134 x 2
    ##    aisle_id     n
    ##       <int> <int>
    ##  1        1  2936
    ##  2        2  3873
    ##  3        3 17449
    ##  4        4  9917
    ##  5        5  2905
    ##  6        6  1795
    ##  7        7  1526
    ##  8        8  1501
    ##  9        9  9736
    ## 10       10   448
    ## # ... with 124 more rows
…
Problem 3
---------

``` r
data("ny_noaa")
ny_noaa
```

    ## # A tibble: 2,595,176 x 7
    ##    id          date        prcp  snow  snwd tmax  tmin 
    ##    <chr>       <date>     <int> <int> <int> <chr> <chr>
    ##  1 US1NYAB0001 2007-11-01    NA    NA    NA <NA>  <NA> 
    ##  2 US1NYAB0001 2007-11-02    NA    NA    NA <NA>  <NA> 
    ##  3 US1NYAB0001 2007-11-03    NA    NA    NA <NA>  <NA> 
    ##  4 US1NYAB0001 2007-11-04    NA    NA    NA <NA>  <NA> 
    ##  5 US1NYAB0001 2007-11-05    NA    NA    NA <NA>  <NA> 
    ##  6 US1NYAB0001 2007-11-06    NA    NA    NA <NA>  <NA> 
    ##  7 US1NYAB0001 2007-11-07    NA    NA    NA <NA>  <NA> 
    ##  8 US1NYAB0001 2007-11-08    NA    NA    NA <NA>  <NA> 
    ##  9 US1NYAB0001 2007-11-09    NA    NA    NA <NA>  <NA> 
    ## 10 US1NYAB0001 2007-11-10    NA    NA    NA <NA>  <NA> 
    ## # ... with 2,595,166 more rows

``` r
weather_data = ny_noaa %>%
  janitor::clean_names() %>%
  separate(date, into = c("year", "month", "day"))
weather_data
```

    ## # A tibble: 2,595,176 x 9
    ##    id          year  month day    prcp  snow  snwd tmax  tmin 
    ##    <chr>       <chr> <chr> <chr> <int> <int> <int> <chr> <chr>
    ##  1 US1NYAB0001 2007  11    01       NA    NA    NA <NA>  <NA> 
    ##  2 US1NYAB0001 2007  11    02       NA    NA    NA <NA>  <NA> 
    ##  3 US1NYAB0001 2007  11    03       NA    NA    NA <NA>  <NA> 
    ##  4 US1NYAB0001 2007  11    04       NA    NA    NA <NA>  <NA> 
    ##  5 US1NYAB0001 2007  11    05       NA    NA    NA <NA>  <NA> 
    ##  6 US1NYAB0001 2007  11    06       NA    NA    NA <NA>  <NA> 
    ##  7 US1NYAB0001 2007  11    07       NA    NA    NA <NA>  <NA> 
    ##  8 US1NYAB0001 2007  11    08       NA    NA    NA <NA>  <NA> 
    ##  9 US1NYAB0001 2007  11    09       NA    NA    NA <NA>  <NA> 
    ## 10 US1NYAB0001 2007  11    10       NA    NA    NA <NA>  <NA> 
    ## # ... with 2,595,166 more rows
